%YAML 1.1
%TAG !u! tag:unity3d.com,2011:
--- !u!1045 &1
EditorBuildSettings:
  m_ObjectHideFlags: 0
  serializedVersion: 2
  m_Scenes:
  - enabled: 1
    path: Assets/StressMap/Grass/Grass.unity
    guid: 76057441be12b7a41bcdc8ec783388e9
  m_configObjects: {}
